proto,connection_type,bytes_sent,bytes_received,avg_rtt_in_microseconds,packets_sent,packets_received
tcp,localhost,1060,61556,91226.08139534884,86,902
tcp,cable,1060,60270,36789107.8372093,86,884
tcp,cable,1060,61043,23997470.91860465,86,898
quic,cable,1061,61313,9930545.03488372,86,896
quic,cable,1061,118960,14566009.674418604,86,896
quic,cable,1061,84541,14960881.697674418,86,906
sctp,cable,1061,16066,39482886.38372093,86,227
sctp,cable,1060,21252,38889719.23255814,86,231
raknet_reliable,cable,1060,56765,33913694.96511628,86,867
raknet_reliable,cable,1061,101740,85401437.85882352,86,791
raknet_unreliable,cable,1061,56014,9643925.220930232,86,848
raknet_unreliable,cable,1061,101520,9819865.732558139,86,770
raknet_unreliable,cable,1061,103684,10093144.220930232,86,814
