proto,connection_type,bytes_sent,bytes_received,avg_rtt_in_nanos,packets_sent,packets_received,jitter,log_name
tcp,wifi,24751,13384731,8782052.758152174,1840,42765,2293519.180387498,third
tcp,wifi,24751,13384679,8980397.527717391,1840,42763,2414979.6922773262,third
tcp,wifi,49149,22359819,31086000.45204313,3676,39648,41908755.35205178,twothirds
tcp,wifi,49149,22359698,30105563.425568182,3676,39646,40274916.77763161,twothirds
tcp,wifi,73899,35180707,11703229.504169688,5516,43978,6132947.221662898,full
tcp,wifi,73899,35180682,11690475.53879623,5516,43977,6182921.6125439815,full
quic,wifi,73899,35492467,9115427.888324874,5516,44316,7890115.107823116,full
quic,wifi,73899,35492590,8853431.946156636,5516,44321,7769324.666463127,full
quic,wifi,24750,13501204,5980838.242391304,1840,43137,3817165.5748842214,third
quic,wifi,24750,13500940,5841742.824456521,1840,43126,3846925.725600762,third
quic,wifi,49149,23307629,5116552.787268771,3676,43663,2764146.838555832,twothirds
quic,wifi,49149,23307482,5221723.71898803,3676,43657,2728843.9033826105,twothirds
sctp,wifi,49149,5888382,17451192.010065287,3676,11850,13114221.779001167,twothirds
sctp,wifi,49149,5888406,23014752.30631121,3676,11851,16749072.857954454,twothirds
sctp,wifi,24751,3398380,9411734.532065218,1840,11290,4300425.114141699,third
sctp,wifi,24750,3398406,30268645.780978262,1840,11291,28673927.454123348,third
sctp,wifi,73899,8935175,16605819.317802755,5516,12509,10486194.403299907,full
sctp,wifi,73899,8935852,17660102.308556926,5516,12511,10242031.945183646,full
raknet_reliable,wifi,73900,35501010,11583627.728607686,5516,44417,4364325.897089496,full
raknet_reliable,wifi,73900,35500787,11170676.638506165,5516,44384,4217102.871433802,full
raknet_reliable,wifi,24750,13498624,12914721.310869565,1840,43195,6646086.818872788,third
raknet_reliable,wifi,24750,13497734,13100199.75,1840,43158,6835087.225815217,third
raknet_reliable,wifi,49149,23210798,12929862.994831339,3676,43289,5546746.498604358,twothirds
raknet_reliable,wifi,49149,23208285,13113982.874047877,3676,43249,5824159.705816685,twothirds
raknet_unreliable,wifi,49149,23261870,4876438.57616975,3676,43602,2568797.377762915,twothirds
raknet_unreliable,wifi,49149,23260974,4992672.017682264,3676,43632,2610027.9940192057,twothirds
raknet_unreliable,wifi,24750,13487842,5076569.0021750955,1840,43152,2728537.445333639,third
raknet_unreliable,wifi,24750,13487331,4862477.852637303,1840,43119,2683306.8860969776,third
raknet_unreliable,wifi,73899,35486892,4443016.358295558,5516,44366,2123329.885107741,full
raknet_unreliable,wifi,73899,35488480,4350726.051677244,5516,44403,2075613.6793946202,full
tcp,5g,73898,35527174,48592479.20594634,5516,44346,9877744.283031669,full
tcp,5g,73898,35528814,48493454.37128354,5516,44360,9824004.094787909,full
tcp,5g,24750,13437274,51166558.32228261,1840,43015,10760912.636743253,third
tcp,5g,24750,13436842,51315003.52010869,1840,42997,10705779.76702861,third
tcp,5g,49148,23310434,59505302.358269855,3676,43627,11368038.395437988,twothirds
tcp,5g,49149,23312132,60696606.46137106,3676,43645,11975258.574399618,twothirds
raknet_reliable,5g,49149,22689938,81781546.50598477,3676,42723,17733134.51217804,twothirds
raknet_reliable,5g,49149,22695729,70365975.8343308,3676,42812,15250491.332522746,twothirds
raknet_reliable,5g,24750,13339647,69603806.45380434,1840,42605,16147401.426485687,third
raknet_reliable,5g,24750,13339871,68656620.38804348,1840,42556,15657136.490621435,third
raknet_reliable,5g,73899,35534079,72001751.83411893,5516,44484,15145506.178407883,full
raknet_reliable,5g,73899,35528709,83737923.03027557,5516,44392,17236823.576739226,full
raknet_unreliable,5g,73900,35497209,37986150.67258883,5516,44462,4114240.16715192,full
raknet_unreliable,5g,73900,35497191,32077977.093002174,5516,44398,4079061.585780346,full
raknet_unreliable,5g,24750,13474065,36540684.82608695,1840,42787,5174602.649432833,third
raknet_unreliable,5g,24750,13475270,36594373.11576087,1840,42836,5188205.773066503,third
raknet_unreliable,5g,49149,23322107,35790870.50081611,3676,43751,4391010.410245835,twothirds
raknet_unreliable,5g,49149,23321325,35876301.283188246,3676,43678,4388428.216720289,twothirds
tcp,ethernet,73900,35460730,4241401.105692531,5516,44264,693514.2353150068,full
tcp,ethernet,73899,35460801,3454943.9612037707,5516,44267,1205762.1263727115,full
tcp,ethernet,24751,13485735,2179373.3375,1840,43100,508382.56813857355,third
tcp,ethernet,24750,13485710,3813537.7271739133,1840,43099,635525.0602386593,third
tcp,ethernet,49149,23309762,3945780.087323177,3676,43661,454065.6560895171,twothirds
tcp,ethernet,49149,23309786,3764983.75,3676,43662,669621.7863166485,twothirds
tcp,ethernet,49149,23160835,4242337.061479869,3676,43413,693555.7333602954,twothirds
tcp,ethernet,49149,23160861,4157993.4023394994,3676,43414,691165.5109226635,twothirds
raknet_reliable,ethernet,73899,35506555,4593819.034989122,5516,44418,1067910.4415612062,full
raknet_reliable,ethernet,73900,35505151,4502404.4448876,5516,44386,1022311.4796884173,full
raknet_reliable,ethernet,24750,13496393,4294287.4755434785,1840,43184,663071.4684398721,third
raknet_reliable,ethernet,24750,13496217,4370131.546195652,1840,43157,731793.4793035237,third
raknet_reliable,ethernet,49149,23315604,4313803.064200218,3676,43729,881076.8441906687,twothirds
raknet_reliable,ethernet,49149,23314832,4299895.662132753,3676,43697,850301.8160150591,twothirds
raknet_unreliable,ethernet,49149,23308159,2004571.6784548422,3676,43715,74625.40445746487,twothirds
raknet_unreliable,ethernet,49149,23307434,1982567.359085963,3676,43685,98403.01075173392,twothirds
raknet_unreliable,ethernet,24750,13425214,2106115.6858695652,1840,42827,241144.6300472626,third
raknet_unreliable,ethernet,24751,13425913,2105919.316847826,1840,42856,241338.7066493281,third
raknet_unreliable,ethernet,73899,35378056,2368861.838107324,5516,44295,731579.9691244967,full
raknet_unreliable,ethernet,73899,35377330,2369386.6296229153,5516,44265,731661.4522605255,full
sctp,ethernet,73899,8966742,20359579.62146483,5516,12543,9222263.414322276,full
sctp,ethernet,73898,8966763,20025008.777918782,5516,12544,9664631.296776434,full
sctp,ethernet,24750,3400958,5140249.113043479,1840,11287,2063263.0265217407,third
sctp,ethernet,24750,3400936,5183271.135326087,1840,11286,2064549.3864951583,third
sctp,ethernet,49149,5867317,33317186.284820456,3676,11815,10601953.408496244,twothirds
sctp,ethernet,49149,5867291,33518727.565560393,3676,11814,10457304.372857472,twothirds
dccp,ethernet,47156,8222624,9233108270.543526,3523,17238,4743060974.399124,twothirds
dccp,ethernet,47602,8706802,7635308952.449931,3557,18075,3939475964.010244,twothirds
dccp,ethernet,67725,11286378,11666480411.670057,5051,16464,5944559600.112803,full
dccp,ethernet,68695,11904321,10220643350.012688,5123,17247,5219747838.187963,full
dccp,ethernet,24602,6074254,4413071638.973154,1828,19632,2210528689.603343,third
dccp,ethernet,24514,5736027,6220793273.382239,1821,18703,3099839844.979227,third
quic,5g,73900,35485464,30985345.678390138,5516,44320,4042049.452297664,full
quic,5g,73900,35484763,37012797.55656273,5516,44291,4018644.458475508,full
quic,5g,24751,13493353,37051109.07934783,1840,43098,3876885.42310137,third
quic,5g,24751,13494053,36864780.181521736,1840,43127,3870383.7644104394,third
quic,5g,49148,23285781,33107919.497007616,3676,43593,4788197.560966872,twothirds
quic,5g,49148,23285882,33116829.68960827,3676,43614,4845830.833689777,twothirds
quic,4g,49149,23129341,40366587.12622416,3676,43386,6450131.298966639,twothirds
quic,4g,49149,23130098,40343046.69586507,3676,43366,6431170.70323496,twothirds
quic,4g,24751,13491041,39665998.375543475,1840,43086,5803142.91132267,third
quic,4g,24751,13492175,39601518.345108695,1840,43133,5962992.377108946,third
quic,4g,73899,35464056,49003561.82577955,5516,44279,8628219.535954304,full
quic,4g,73899,35464107,48802142.10242929,5516,44307,8503859.412907623,full
quic,2g,73900,639412,78163030876.20183,5516,6597,1155460566.2328103,full
quic,2g,73900,323497,16765311237.951542,5516,4114,2023563170.9543376,full
quic,2g,24751,161051,21896117412.727272,1840,3769,4837205038.9520645,third
quic,2g,24751,98665,40042082750.75,1840,2982,14607299246.96875,third
quic,2g,49149,361349,30596460841.324677,3676,6123,118288312.67566195,twothirds
quic,2g,49149,625726,31195693283.665,3676,4620,3978121978.298045,twothirds
quic,ethernet,49149,23313675,2072591.081882481,3676,43672,156252.53476051206,twothirds
quic,ethernet,49149,23313553,2100089.3781284005,3676,43667,199418.70750070695,twothirds
quic,ethernet,24750,13457674,2204713.2413043478,1840,42972,389050.65589792235,third
quic,ethernet,24751,13457797,2220309.135326087,1840,42977,407951.687596282,third
quic,ethernet,73898,35438112,2117504.143401015,5516,44290,243661.88809526424,full
quic,ethernet,73899,35438887,2180641.6127628717,5516,44296,336399.7928139655,full
tcp,2g,73899,1009913,20056776352.262413,5516,4572,15143567757.279053,full
tcp,2g,73900,816989,14415186252.966291,5516,4270,8812481520.359549,full
tcp,2g,24750,1043361,13832738761.355371,1840,5982,5732276686.657343,third
tcp,2g,24750,1041692,10191979774.126984,1840,6043,7762463601.551782,third
tcp,2g,49149,1168494,19762255135.801205,3676,5202,13823065304.250689,twothirds
tcp,2g,49149,789607,36650862372.44602,3676,4475,31989607697.995644,twothirds
tcp,4g,49149,23334836,81172566.16920567,3676,43633,14955763.06742226,twothirds
tcp,4g,49149,23334892,80390223.6569641,3676,43652,14724959.449091101,twothirds
tcp,4g,24750,13472900,72511519.03097826,1840,43076,14244165.69037161,third
tcp,4g,24750,13473456,81932189.85054348,1840,43089,15587653.427879846,third
tcp,4g,73898,35562289,69151977.08393763,5516,44355,12925210.24919934,full
tcp,4g,73898,35562459,70473161.76051487,5516,44335,14095769.751813713,full
raknet_reliable,4g,73899,35475842,108580709.07904278,5516,44329,22249650.917012513,full
raknet_reliable,4g,73900,35479615,97209836.0984409,5516,44433,20122575.924376532,full
raknet_reliable,4g,24750,13490286,108905025.57934782,1840,43144,23807338.951456714,third
raknet_reliable,4g,24750,13492738,108623657.89293478,1840,43247,23224225.644880664,third
raknet_reliable,4g,49149,23160230,110043261.35826986,3676,43377,27241505.152980767,twothirds
raknet_reliable,4g,49149,23167164,109453331.39156462,3676,43497,27311277.431903966,twothirds
raknet_unreliable,4g,49149,23307401,40880768.047606096,3676,43815,4683091.96088984,twothirds
raknet_unreliable,4g,49149,23305157,46681210.80848749,3676,43722,4676269.232834525,twothirds
raknet_unreliable,4g,24750,13497461,47262153.89076087,1840,43159,4421065.75519315,third
raknet_unreliable,4g,24750,13499916,47367947.82826087,1840,43261,4420094.275163027,third
raknet_unreliable,4g,73900,35466991,41222841.73730964,5516,44472,4808315.151033136,full
raknet_unreliable,4g,73899,35464594,47307638.40645395,5516,44373,4872876.490065453,full
