proto,connection_type,size,bytes_sent,bytes_received,avg_rtt_ns,packets_sent,packets_recv,jitter_ns
dccp,ethernet,full,68209,11595349,10943561881.0,5086,16855,5582153719.0
dccp,ethernet,third,24558,5905140,5316932456.0,1824,19167,2655184267.5
dccp,ethernet,twothirds,47379,8464713,8434208611.5,3539,17656,4341268469.0
quic,2g,full,73900,481454,47464171057.0,5516,5355,1589511868.5
quic,2g,third,24750,129857,30969100082.0,1840,3375,9722252143.0
quic,2g,twothirds,49148,493537,30896077062.5,3676,5371,2048205145.35
quic,4g,full,73898,35464081,48902851.965,5516,44292,8566039.475
quic,4g,third,24750,13491607,39633758.365,1840,43109,5883067.645
quic,4g,twothirds,49148,23129719,40354816.91500001,3676,43376,6440651.0
quic,5g,full,73900,35485113,33999071.620000005,5516,44305,4030346.955
quic,5g,third,24750,13493702,36957944.629999995,1840,43112,3873634.59
quic,5g,twothirds,49148,23285831,33112374.595,3676,43603,4817014.195
quic,ethernet,full,73898,35438499,2149072.875,5516,44293,290030.83999999997
quic,ethernet,third,24750,13457735,2212511.1900000004,1840,42974,398501.175
quic,ethernet,twothirds,49148,23313613,2086340.23,3676,43669,177835.62
quic,wifi,full,73898,35492528,8984429.92,5516,44318,7829719.890000001
quic,wifi,third,24750,13501072,5911290.53,1840,43131,3832045.65
quic,wifi,twothirds,49148,23307555,5169138.255,3676,43659,2746495.37
raknet_reliable,4g,full,73899,35477728,102895272.6,5516,44380,21186113.42
raknet_reliable,4g,third,24750,13491512,108764341.75,1840,43195,23515782.295
raknet_reliable,4g,twothirds,49148,23163697,109748296.4,3676,43436,27276391.29
raknet_reliable,5g,full,73898,35531393,77869837.43,5516,44438,16191164.879999999
raknet_reliable,5g,third,24750,13339758,69130213.42,1840,42580,15902268.96
raknet_reliable,5g,twothirds,49148,22692833,76073761.17,3676,42767,16491812.920000002
raknet_reliable,ethernet,full,73899,35505852,4548111.735,5516,44402,1045110.96
raknet_reliable,ethernet,third,24750,13496304,4332209.515000001,1840,43170,697432.475
raknet_reliable,ethernet,twothirds,49148,23315218,4306849.359999999,3676,43712,865689.33
raknet_reliable,wifi,full,73900,35500898,11377152.185,5516,44400,4290714.385
raknet_reliable,wifi,third,24750,13498179,13007460.530000001,1840,43176,6740587.025
raknet_reliable,wifi,twothirds,49148,23209541,13021922.93,3676,43268,5685453.105
raknet_unreliable,4g,full,73899,35465792,44265240.075,5516,44422,4840595.82
raknet_unreliable,4g,third,24750,13498688,47315050.86,1840,43209,4420580.02
raknet_unreliable,4g,twothirds,49148,23306278,43780989.43,3676,43768,4679680.595000001
raknet_unreliable,5g,full,73900,35497199,35032063.88,5516,44430,4096650.88
raknet_unreliable,5g,third,24750,13474667,36567528.974999994,1840,42811,5181404.21
raknet_unreliable,5g,twothirds,49148,23321715,35833585.89,3676,43714,4389719.3149999995
raknet_unreliable,ethernet,full,73898,35377693,2369124.235,5516,44279,731620.71
raknet_unreliable,ethernet,third,24750,13425563,2106017.505,1840,42841,241241.66999999998
raknet_unreliable,ethernet,twothirds,49148,23307796,1993569.52,3676,43699,86514.20499999999
raknet_unreliable,wifi,full,73898,35487686,4396871.205,5516,44384,2099471.785
raknet_unreliable,wifi,third,24750,13487586,4969523.425,1840,43135,2705922.17
raknet_unreliable,wifi,twothirds,49148,23261422,4934555.3,3676,43617,2589412.685
sctp,ethernet,full,73898,8966752,20192294.200000003,5516,12543,9443447.355
sctp,ethernet,third,24750,3400947,5161760.125,1840,11286,2063906.21
sctp,ethernet,twothirds,49148,5867303,33417956.925,3676,11814,10529628.89
sctp,wifi,full,73898,8935513,17132960.814999998,5516,12509,10364113.175
sctp,wifi,third,24750,3398393,19840190.155,1840,11290,16487176.28
sctp,wifi,twothirds,49148,5888394,20232972.16,3676,11850,14931647.32
tcp,2g,full,73899,913450,17235981302.5,5516,4421,11978024638.5
tcp,2g,third,24750,1042526,12012359267.5,1840,6012,6747370144.5
tcp,2g,twothirds,49148,979050,28206558754.0,3676,4838,22906336501.0
tcp,4g,full,73898,35562373,69812569.42,5516,44344,13510490.0
tcp,4g,third,24750,13473178,77221854.44,1840,43082,14915909.559999999
tcp,4g,twothirds,49148,23334864,80781394.91499999,3676,43642,14840361.26
tcp,5g,full,73898,35527994,48542966.79,5516,44353,9850874.184999999
tcp,5g,third,24750,13437058,51240780.92,1840,43005,10733346.205
tcp,5g,twothirds,49148,23311283,60100954.41,3676,43635,11671648.485
tcp,ethernet,full,73899,35460765,3848172.535,5516,44265,949638.1849999999
tcp,ethernet,third,24750,13485722,2996455.535,1840,43099,571953.8150000001
tcp,ethernet,twothirds,49148,23235309,4027773.5749999997,3676,43536,627102.1725
tcp,wifi,full,73898,35180694,11696852.52,5516,43977,6157934.415
tcp,wifi,third,24750,13384704,8881225.145,1840,42763,2354249.435
tcp,wifi,twothirds,49148,22359758,30595781.939999998,3676,39647,41091836.065
