bytess,bytesr,avgrttmicros,packetss,packetsr
4214,13100,81.35714285714286,182,180
4214,20300,104.6547619047619,182,180
4319,22069,117.9047619047619,187,185
4319,22909,109.46428571428571,187,185
4235,13177,112.05952380952381,183,181
4319,14689,94.33333333333333,187,185
4214,20300,129.20238095238096,182,180
4235,20437,108.03571428571429,183,181
4235,20437,110.77380952380952,183,181
4319,21909,114.88095238095238,187,185
